{
  "project_info": {
    "project_number": "500420875523",
    "firebase_url": "https://trailer-hub-c76a2.firebaseio.com",
    "project_id": "trailer-hub-c76a2",
    "storage_bucket": "trailer-hub-c76a2.appspot.com"
  },
  "client": [
    {
      "client_info": {
        "mobilesdk_app_id": "1:500420875523:android:8badf2f4b20b2c7bf40536",
        "android_client_info": {
          "package_name": "com.tendai.trailerhub"
        }
      },
      "oauth_client": [
        {
          "client_id": "500420875523-09944i94uibpfosogku5k2jfqj40go43.apps.googleusercontent.com",
          "client_type": 1,
          "android_info": {
            "package_name": "com.tendai.trailerhub",
            "certificate_hash": "c0923057b7860edcd73472c027c2a34b97b9033a"
          }
        },
        {
          "client_id": "500420875523-up6sds9cbsn2r1blr91bplldgotfmlpl.apps.googleusercontent.com",
          "client_type": 3
        }
      ],
      "api_key": [
        {
          "current_key": "AIzaSyAbg2rxLr_4NMK1GeyeVgAaTn8rgFysfNY"
        }
      ],
      "services": {
        "appinvite_service": {
          "other_platform_oauth_client": [
            {
              "client_id": "500420875523-up6sds9cbsn2r1blr91bplldgotfmlpl.apps.googleusercontent.com",
              "client_type": 3
            }
          ]
        }
      }
    }
  ],
  "configuration_version": "1"
}